{
    "m_SGVersion": 3,
    "m_Type": "UnityEditor.ShaderGraph.GraphData",
    "m_ObjectId": "343b0dee14f24c03a67ee12a3c32ccf5",
    "m_Properties": [
        {
            "m_Id": "56f7c245e5e7485394197178cd35319b"
        },
        {
            "m_Id": "41d7c5bf58de4ea5a9722ad564eaf679"
        },
        {
            "m_Id": "dd8ff0f0a757488396cf04f644bb1a3c"
        },
        {
            "m_Id": "6d5bb12bea3d4e76a8e5531b50d256d1"
        },
        {
            "m_Id": "93af429eded5479b9019bd164d431016"
        }
    ],
    "m_Keywords": [],
    "m_Dropdowns": [],
    "m_CategoryData": [
        {
            "m_Id": "9a98c6d7d51742a79376b9db6953d598"
        }
    ],
    "m_Nodes": [
        {
            "m_Id": "c833a18371e54efca9b3f6caa8b6dfaf"
        },
        {
            "m_Id": "18c77ce211614dc19c2474d2394f43ba"
        },
        {
            "m_Id": "9ffcf2bf5ff04004a956cf3737b52e8f"
        },
        {
            "m_Id": "b769fad2da02414eaacfd00dbd1a3e43"
        },
        {
            "m_Id": "8e93ad6f7d49495db3ecdb8bb71d0829"
        },
        {
            "m_Id": "62fea81ca67e472981b9cc788b421ea0"
        },
        {
            "m_Id": "c88816395d924c61adc4606160b947f4"
        },
        {
            "m_Id": "b693208d574a4e5ea5aa074a4cfa5bea"
        },
        {
            "m_Id": "afd66d67c5ac494284498ba93056f4c2"
        },
        {
            "m_Id": "7e632a7d66a04ec59f1926254e7dcdda"
        },
        {
            "m_Id": "cd7c5f9a8af748908b756fba960ffcfd"
        },
        {
            "m_Id": "b30dd91d80e94ca3a2ecca8ca3a4a8fd"
        },
        {
            "m_Id": "70de033a822b4c889620ade093eabb9c"
        },
        {
            "m_Id": "d9e286a4cd474ccd9eb3dc794f6e492d"
        },
        {
            "m_Id": "f5580eea56d549e7a062a2cf3a2ac070"
        },
        {
            "m_Id": "e772ba6fc34d42b5b7e39e2b7095e147"
        },
        {
            "m_Id": "c435d0dd517044a7844e4c3d14c5e437"
        },
        {
            "m_Id": "da69a6d37406442da783fa482f90f0e2"
        },
        {
            "m_Id": "becfc027f335411084a4a16c14e14880"
        }
    ],
    "m_GroupDatas": [],
    "m_StickyNoteDatas": [],
    "m_Edges": [
        {
            "m_OutputSlot": {
                "m_Node": {
                    "m_Id": "70de033a822b4c889620ade093eabb9c"
                },
                "m_SlotId": 1
            },
            "m_InputSlot": {
                "m_Node": {
                    "m_Id": "e772ba6fc34d42b5b7e39e2b7095e147"
                },
                "m_SlotId": 0
            }
        },
        {
            "m_OutputSlot": {
                "m_Node": {
                    "m_Id": "70de033a822b4c889620ade093eabb9c"
                },
                "m_SlotId": 1
            },
            "m_InputSlot": {
                "m_Node": {
                    "m_Id": "f5580eea56d549e7a062a2cf3a2ac070"
                },
                "m_SlotId": 1
            }
        },
        {
            "m_OutputSlot": {
                "m_Node": {
                    "m_Id": "b30dd91d80e94ca3a2ecca8ca3a4a8fd"
                },
                "m_SlotId": 0
            },
            "m_InputSlot": {
                "m_Node": {
                    "m_Id": "70de033a822b4c889620ade093eabb9c"
                },
                "m_SlotId": -190602549
            }
        },
        {
            "m_OutputSlot": {
                "m_Node": {
                    "m_Id": "becfc027f335411084a4a16c14e14880"
                },
                "m_SlotId": 2
            },
            "m_InputSlot": {
                "m_Node": {
                    "m_Id": "b769fad2da02414eaacfd00dbd1a3e43"
                },
                "m_SlotId": 0
            }
        },
        {
            "m_OutputSlot": {
                "m_Node": {
                    "m_Id": "c435d0dd517044a7844e4c3d14c5e437"
                },
                "m_SlotId": 2
            },
            "m_InputSlot": {
                "m_Node": {
                    "m_Id": "becfc027f335411084a4a16c14e14880"
                },
                "m_SlotId": 0
            }
        },
        {
            "m_OutputSlot": {
                "m_Node": {
                    "m_Id": "cd7c5f9a8af748908b756fba960ffcfd"
                },
                "m_SlotId": 0
            },
            "m_InputSlot": {
                "m_Node": {
                    "m_Id": "70de033a822b4c889620ade093eabb9c"
                },
                "m_SlotId": -1404407933
            }
        },
        {
            "m_OutputSlot": {
                "m_Node": {
                    "m_Id": "d9e286a4cd474ccd9eb3dc794f6e492d"
                },
                "m_SlotId": 0
            },
            "m_InputSlot": {
                "m_Node": {
                    "m_Id": "f5580eea56d549e7a062a2cf3a2ac070"
                },
                "m_SlotId": 0
            }
        },
        {
            "m_OutputSlot": {
                "m_Node": {
                    "m_Id": "da69a6d37406442da783fa482f90f0e2"
                },
                "m_SlotId": 0
            },
            "m_InputSlot": {
                "m_Node": {
                    "m_Id": "c435d0dd517044a7844e4c3d14c5e437"
                },
                "m_SlotId": 1
            }
        },
        {
            "m_OutputSlot": {
                "m_Node": {
                    "m_Id": "e772ba6fc34d42b5b7e39e2b7095e147"
                },
                "m_SlotId": 1
            },
            "m_InputSlot": {
                "m_Node": {
                    "m_Id": "c435d0dd517044a7844e4c3d14c5e437"
                },
                "m_SlotId": 0
            }
        },
        {
            "m_OutputSlot": {
                "m_Node": {
                    "m_Id": "f5580eea56d549e7a062a2cf3a2ac070"
                },
                "m_SlotId": 2
            },
            "m_InputSlot": {
                "m_Node": {
                    "m_Id": "becfc027f335411084a4a16c14e14880"
                },
                "m_SlotId": 1
            }
        }
    ],
    "m_VertexContext": {
        "m_Position": {
            "x": 491.99993896484377,
            "y": -460.8000183105469
        },
        "m_Blocks": [
            {
                "m_Id": "c833a18371e54efca9b3f6caa8b6dfaf"
            },
            {
                "m_Id": "18c77ce211614dc19c2474d2394f43ba"
            },
            {
                "m_Id": "9ffcf2bf5ff04004a956cf3737b52e8f"
            }
        ]
    },
    "m_FragmentContext": {
        "m_Position": {
            "x": 495.1999816894531,
            "y": -111.99999237060547
        },
        "m_Blocks": [
            {
                "m_Id": "b769fad2da02414eaacfd00dbd1a3e43"
            },
            {
                "m_Id": "8e93ad6f7d49495db3ecdb8bb71d0829"
            },
            {
                "m_Id": "62fea81ca67e472981b9cc788b421ea0"
            },
            {
                "m_Id": "c88816395d924c61adc4606160b947f4"
            },
            {
                "m_Id": "b693208d574a4e5ea5aa074a4cfa5bea"
            },
            {
                "m_Id": "afd66d67c5ac494284498ba93056f4c2"
            },
            {
                "m_Id": "7e632a7d66a04ec59f1926254e7dcdda"
            }
        ]
    },
    "m_PreviewData": {
        "serializedMesh": {
            "m_SerializedMesh": "{\"mesh\":{\"instanceID\":0}}",
            "m_Guid": ""
        },
        "preventRotation": false
    },
    "m_Path": "Shader Graphs",
    "m_GraphPrecision": 1,
    "m_PreviewMode": 2,
    "m_OutputNode": {
        "m_Id": ""
    },
    "m_ActiveTargets": [
        {
            "m_Id": "6e7ebf09d4e542eab102898b0f4b597e"
        }
    ]
}

{
    "m_SGVersion": 0,
    "m_Type": "UnityEditor.ShaderGraph.Vector1MaterialSlot",
    "m_ObjectId": "0edd5b22aea14148a8b8b4f5cbc5d8d2",
    "m_Id": 0,
    "m_DisplayName": "Smoothness",
    "m_SlotType": 0,
    "m_Hidden": false,
    "m_ShaderOutputName": "Smoothness",
    "m_StageCapability": 2,
    "m_Value": 0.5,
    "m_DefaultValue": 0.5,
    "m_Labels": []
}

{
    "m_SGVersion": 0,
    "m_Type": "UnityEditor.ShaderGraph.BlockNode",
    "m_ObjectId": "18c77ce211614dc19c2474d2394f43ba",
    "m_Group": {
        "m_Id": ""
    },
    "m_Name": "VertexDescription.Normal",
    "m_DrawState": {
        "m_Expanded": true,
        "m_Position": {
            "serializedVersion": "2",
            "x": 0.0,
            "y": 0.0,
            "width": 0.0,
            "height": 0.0
        }
    },
    "m_Slots": [
        {
            "m_Id": "95745e2bb4c24aebb8d112a4c0e60a83"
        }
    ],
    "synonyms": [],
    "m_Precision": 0,
    "m_PreviewExpanded": true,
    "m_PreviewMode": 0,
    "m_CustomColors": {
        "m_SerializableColors": []
    },
    "m_SerializedDescriptor": "VertexDescription.Normal"
}

{
    "m_SGVersion": 0,
    "m_Type": "UnityEditor.ShaderGraph.DynamicValueMaterialSlot",
    "m_ObjectId": "256ff904cf6d4a5ba3e2ce14c6c58a9f",
    "m_Id": 1,
    "m_DisplayName": "B",
    "m_SlotType": 0,
    "m_Hidden": false,
    "m_ShaderOutputName": "B",
    "m_StageCapability": 3,
    "m_Value": {
        "e00": 2.0,
        "e01": 2.0,
        "e02": 2.0,
        "e03": 2.0,
        "e10": 2.0,
        "e11": 2.0,
        "e12": 2.0,
        "e13": 2.0,
        "e20": 2.0,
        "e21": 2.0,
        "e22": 2.0,
        "e23": 2.0,
        "e30": 2.0,
        "e31": 2.0,
        "e32": 2.0,
        "e33": 2.0
    },
    "m_DefaultValue": {
        "e00": 1.0,
        "e01": 0.0,
        "e02": 0.0,
        "e03": 0.0,
        "e10": 0.0,
        "e11": 1.0,
        "e12": 0.0,
        "e13": 0.0,
        "e20": 0.0,
        "e21": 0.0,
        "e22": 1.0,
        "e23": 0.0,
        "e30": 0.0,
        "e31": 0.0,
        "e32": 0.0,
        "e33": 1.0
    }
}

{
    "m_SGVersion": 0,
    "m_Type": "UnityEditor.ShaderGraph.ColorRGBMaterialSlot",
    "m_ObjectId": "2b2b90dcc30b46cbb05e2aa91167e99b",
    "m_Id": 0,
    "m_DisplayName": "Emission",
    "m_SlotType": 0,
    "m_Hidden": false,
    "m_ShaderOutputName": "Emission",
    "m_StageCapability": 2,
    "m_Value": {
        "x": 0.0,
        "y": 0.0,
        "z": 0.0
    },
    "m_DefaultValue": {
        "x": 0.0,
        "y": 0.0,
        "z": 0.0
    },
    "m_Labels": [],
    "m_ColorMode": 1,
    "m_DefaultColor": {
        "r": 0.0,
        "g": 0.0,
        "b": 0.0,
        "a": 1.0
    }
}

{
    "m_SGVersion": 0,
    "m_Type": "UnityEditor.ShaderGraph.Vector1MaterialSlot",
    "m_ObjectId": "2dd1d8693c024cdb908a21a2792fcbb1",
    "m_Id": -1404407933,
    "m_DisplayName": "Depth",
    "m_SlotType": 0,
    "m_Hidden": false,
    "m_ShaderOutputName": "_Depth",
    "m_StageCapability": 2,
    "m_Value": 0.0,
    "m_DefaultValue": 0.0,
    "m_Labels": []
}

{
    "m_SGVersion": 0,
    "m_Type": "UnityEditor.ShaderGraph.Vector4MaterialSlot",
    "m_ObjectId": "2dea8a1351374eceb5c86c040b0c6062",
    "m_Id": 0,
    "m_DisplayName": "MainColor",
    "m_SlotType": 1,
    "m_Hidden": false,
    "m_ShaderOutputName": "Out",
    "m_StageCapability": 3,
    "m_Value": {
        "x": 0.0,
        "y": 0.0,
        "z": 0.0,
        "w": 0.0
    },
    "m_DefaultValue": {
        "x": 0.0,
        "y": 0.0,
        "z": 0.0,
        "w": 0.0
    },
    "m_Labels": []
}

{
    "m_SGVersion": 0,
    "m_Type": "UnityEditor.ShaderGraph.Vector1MaterialSlot",
    "m_ObjectId": "3536dc6c20354c4e908077331faeec97",
    "m_Id": -190602549,
    "m_DisplayName": "DepthFalloff",
    "m_SlotType": 0,
    "m_Hidden": false,
    "m_ShaderOutputName": "_DepthFalloff",
    "m_StageCapability": 2,
    "m_Value": 0.0,
    "m_DefaultValue": 0.0,
    "m_Labels": []
}

{
    "m_SGVersion": 1,
    "m_Type": "UnityEditor.ShaderGraph.Internal.Vector1ShaderProperty",
    "m_ObjectId": "41d7c5bf58de4ea5a9722ad564eaf679",
    "m_Guid": {
        "m_GuidSerialized": "b567df8a-3faa-4b93-bdcb-509650eb22c0"
    },
    "m_Name": "DepthFalloff",
    "m_DefaultRefNameVersion": 1,
    "m_RefNameGeneratedByDisplayName": "DepthFalloff",
    "m_DefaultReferenceName": "_DepthFalloff",
    "m_OverrideReferenceName": "",
    "m_GeneratePropertyBlock": true,
    "m_UseCustomSlotLabel": false,
    "m_CustomSlotLabel": "",
    "m_Precision": 0,
    "overrideHLSLDeclaration": false,
    "hlslDeclarationOverride": 0,
    "m_Hidden": false,
    "m_Value": 1.0,
    "m_FloatType": 0,
    "m_RangeValues": {
        "x": 0.0,
        "y": 1.0
    }
}

{
    "m_SGVersion": 0,
    "m_Type": "UnityEditor.ShaderGraph.DynamicValueMaterialSlot",
    "m_ObjectId": "432d791182e941549be2dc8f02a630a1",
    "m_Id": 2,
    "m_DisplayName": "Out",
    "m_SlotType": 1,
    "m_Hidden": false,
    "m_ShaderOutputName": "Out",
    "m_StageCapability": 3,
    "m_Value": {
        "e00": 0.0,
        "e01": 0.0,
        "e02": 0.0,
        "e03": 0.0,
        "e10": 0.0,
        "e11": 0.0,
        "e12": 0.0,
        "e13": 0.0,
        "e20": 0.0,
        "e21": 0.0,
        "e22": 0.0,
        "e23": 0.0,
        "e30": 0.0,
        "e31": 0.0,
        "e32": 0.0,
        "e33": 0.0
    },
    "m_DefaultValue": {
        "e00": 1.0,
        "e01": 0.0,
        "e02": 0.0,
        "e03": 0.0,
        "e10": 0.0,
        "e11": 1.0,
        "e12": 0.0,
        "e13": 0.0,
        "e20": 0.0,
        "e21": 0.0,
        "e22": 1.0,
        "e23": 0.0,
        "e30": 0.0,
        "e31": 0.0,
        "e32": 0.0,
        "e33": 1.0
    }
}

{
    "m_SGVersion": 0,
    "m_Type": "UnityEditor.ShaderGraph.PositionMaterialSlot",
    "m_ObjectId": "454d3c97e13748129657abe73a7d71d0",
    "m_Id": 0,
    "m_DisplayName": "Position",
    "m_SlotType": 0,
    "m_Hidden": false,
    "m_ShaderOutputName": "Position",
    "m_StageCapability": 1,
    "m_Value": {
        "x": 0.0,
        "y": 0.0,
        "z": 0.0
    },
    "m_DefaultValue": {
        "x": 0.0,
        "y": 0.0,
        "z": 0.0
    },
    "m_Labels": [],
    "m_Space": 0
}

{
    "m_SGVersion": 1,
    "m_Type": "UnityEditor.ShaderGraph.Internal.Vector1ShaderProperty",
    "m_ObjectId": "56f7c245e5e7485394197178cd35319b",
    "m_Guid": {
        "m_GuidSerialized": "b4d2242f-d4da-4f1a-b39c-2bf10a59cbdc"
    },
    "m_Name": "Depth",
    "m_DefaultRefNameVersion": 1,
    "m_RefNameGeneratedByDisplayName": "Depth",
    "m_DefaultReferenceName": "_Depth",
    "m_OverrideReferenceName": "",
    "m_GeneratePropertyBlock": true,
    "m_UseCustomSlotLabel": false,
    "m_CustomSlotLabel": "",
    "m_Precision": 0,
    "overrideHLSLDeclaration": false,
    "hlslDeclarationOverride": 0,
    "m_Hidden": false,
    "m_Value": 1.0,
    "m_FloatType": 0,
    "m_RangeValues": {
        "x": 0.0,
        "y": 1.0
    }
}

{
    "m_SGVersion": 0,
    "m_Type": "UnityEditor.ShaderGraph.Vector1MaterialSlot",
    "m_ObjectId": "5895e4eb738a4c138323c6d327b29ee8",
    "m_Id": 0,
    "m_DisplayName": "Depth",
    "m_SlotType": 1,
    "m_Hidden": false,
    "m_ShaderOutputName": "Out",
    "m_StageCapability": 3,
    "m_Value": 0.0,
    "m_DefaultValue": 0.0,
    "m_Labels": []
}

{
    "m_SGVersion": 0,
    "m_Type": "UnityEditor.ShaderGraph.Vector1MaterialSlot",
    "m_ObjectId": "59f3170679f0464fa0e53cc098d15d03",
    "m_Id": 0,
    "m_DisplayName": "DepthFalloff",
    "m_SlotType": 1,
    "m_Hidden": false,
    "m_ShaderOutputName": "Out",
    "m_StageCapability": 3,
    "m_Value": 0.0,
    "m_DefaultValue": 0.0,
    "m_Labels": []
}

{
    "m_SGVersion": 0,
    "m_Type": "UnityEditor.ShaderGraph.BlockNode",
    "m_ObjectId": "62fea81ca67e472981b9cc788b421ea0",
    "m_Group": {
        "m_Id": ""
    },
    "m_Name": "SurfaceDescription.Metallic",
    "m_DrawState": {
        "m_Expanded": true,
        "m_Position": {
            "serializedVersion": "2",
            "x": 0.0,
            "y": 0.0,
            "width": 0.0,
            "height": 0.0
        }
    },
    "m_Slots": [
        {
            "m_Id": "dbcb3a8b03bb41eb8955989ba0922948"
        }
    ],
    "synonyms": [],
    "m_Precision": 0,
    "m_PreviewExpanded": true,
    "m_PreviewMode": 0,
    "m_CustomColors": {
        "m_SerializableColors": []
    },
    "m_SerializedDescriptor": "SurfaceDescription.Metallic"
}

{
    "m_SGVersion": 3,
    "m_Type": "UnityEditor.ShaderGraph.Internal.ColorShaderProperty",
    "m_ObjectId": "6d5bb12bea3d4e76a8e5531b50d256d1",
    "m_Guid": {
        "m_GuidSerialized": "d2364e7b-3a4a-4291-b82d-a93359991829"
    },
    "m_Name": "ShoreColor",
    "m_DefaultRefNameVersion": 1,
    "m_RefNameGeneratedByDisplayName": "ShoreColor",
    "m_DefaultReferenceName": "_ShoreColor",
    "m_OverrideReferenceName": "",
    "m_GeneratePropertyBlock": true,
    "m_UseCustomSlotLabel": false,
    "m_CustomSlotLabel": "",
    "m_Precision": 0,
    "overrideHLSLDeclaration": false,
    "hlslDeclarationOverride": 0,
    "m_Hidden": false,
    "m_Value": {
        "r": 0.0,
        "g": 0.0,
        "b": 0.0,
        "a": 0.0
    },
    "isMainColor": false,
    "m_ColorMode": 0
}

{
    "m_SGVersion": 1,
    "m_Type": "UnityEditor.Rendering.Universal.ShaderGraph.UniversalTarget",
    "m_ObjectId": "6e7ebf09d4e542eab102898b0f4b597e",
    "m_ActiveSubTarget": {
        "m_Id": "93cf118d494b4d3f9ca52969d40b4eac"
    },
    "m_AllowMaterialOverride": false,
    "m_SurfaceType": 1,
    "m_ZTestMode": 4,
    "m_ZWriteControl": 0,
    "m_AlphaMode": 0,
    "m_RenderFace": 2,
    "m_AlphaClip": false,
    "m_CastShadows": true,
    "m_ReceiveShadows": true,
    "m_CustomEditorGUI": "",
    "m_SupportVFX": false
}

{
    "m_SGVersion": 0,
    "m_Type": "UnityEditor.ShaderGraph.SubGraphNode",
    "m_ObjectId": "70de033a822b4c889620ade093eabb9c",
    "m_Group": {
        "m_Id": ""
    },
    "m_Name": "Depthfeade",
    "m_DrawState": {
        "m_Expanded": true,
        "m_Position": {
            "serializedVersion": "2",
            "x": -580.8001098632813,
            "y": -230.40008544921876,
            "width": 227.20004272460938,
            "height": 301.5999755859375
        }
    },
    "m_Slots": [
        {
            "m_Id": "2dd1d8693c024cdb908a21a2792fcbb1"
        },
        {
            "m_Id": "3536dc6c20354c4e908077331faeec97"
        },
        {
            "m_Id": "a05823926166440a85d71338bd5eca5f"
        }
    ],
    "synonyms": [],
    "m_Precision": 0,
    "m_PreviewExpanded": true,
    "m_PreviewMode": 0,
    "m_CustomColors": {
        "m_SerializableColors": []
    },
    "m_SerializedSubGraph": "{\n    \"subGraph\": {\n        \"fileID\": -5475051401550479605,\n        \"guid\": \"960fca586a7c2e442bad149dc2676969\",\n        \"type\": 3\n    }\n}",
    "m_PropertyGuids": [
        "76a30fb7-140e-4949-b3bb-294389cf89d0",
        "3723055f-569f-43f6-b41b-ab9cbfeadd1c"
    ],
    "m_PropertyIds": [
        -1404407933,
        -190602549
    ],
    "m_Dropdowns": [],
    "m_DropdownSelectedEntries": []
}

{
    "m_SGVersion": 0,
    "m_Type": "UnityEditor.ShaderGraph.TangentMaterialSlot",
    "m_ObjectId": "737d3a03beb9497d8b606fdcf7d62612",
    "m_Id": 0,
    "m_DisplayName": "Tangent",
    "m_SlotType": 0,
    "m_Hidden": false,
    "m_ShaderOutputName": "Tangent",
    "m_StageCapability": 1,
    "m_Value": {
        "x": 0.0,
        "y": 0.0,
        "z": 0.0
    },
    "m_DefaultValue": {
        "x": 0.0,
        "y": 0.0,
        "z": 0.0
    },
    "m_Labels": [],
    "m_Space": 0
}

{
    "m_SGVersion": 0,
    "m_Type": "UnityEditor.ShaderGraph.DynamicValueMaterialSlot",
    "m_ObjectId": "7cfc315e06bb408c9e272594ae2a3a27",
    "m_Id": 0,
    "m_DisplayName": "A",
    "m_SlotType": 0,
    "m_Hidden": false,
    "m_ShaderOutputName": "A",
    "m_StageCapability": 3,
    "m_Value": {
        "e00": 0.0,
        "e01": 0.0,
        "e02": 0.0,
        "e03": 0.0,
        "e10": 0.0,
        "e11": 0.0,
        "e12": 0.0,
        "e13": 0.0,
        "e20": 0.0,
        "e21": 0.0,
        "e22": 0.0,
        "e23": 0.0,
        "e30": 0.0,
        "e31": 0.0,
        "e32": 0.0,
        "e33": 0.0
    },
    "m_DefaultValue": {
        "e00": 1.0,
        "e01": 0.0,
        "e02": 0.0,
        "e03": 0.0,
        "e10": 0.0,
        "e11": 1.0,
        "e12": 0.0,
        "e13": 0.0,
        "e20": 0.0,
        "e21": 0.0,
        "e22": 1.0,
        "e23": 0.0,
        "e30": 0.0,
        "e31": 0.0,
        "e32": 0.0,
        "e33": 1.0
    }
}

{
    "m_SGVersion": 0,
    "m_Type": "UnityEditor.ShaderGraph.BlockNode",
    "m_ObjectId": "7e632a7d66a04ec59f1926254e7dcdda",
    "m_Group": {
        "m_Id": ""
    },
    "m_Name": "SurfaceDescription.Alpha",
    "m_DrawState": {
        "m_Expanded": true,
        "m_Position": {
            "serializedVersion": "2",
            "x": 0.0,
            "y": 0.0,
            "width": 0.0,
            "height": 0.0
        }
    },
    "m_Slots": [
        {
            "m_Id": "cce611dce70e4b0986fac81c0c8f44bc"
        }
    ],
    "synonyms": [],
    "m_Precision": 0,
    "m_PreviewExpanded": true,
    "m_PreviewMode": 0,
    "m_CustomColors": {
        "m_SerializableColors": []
    },
    "m_SerializedDescriptor": "SurfaceDescription.Alpha"
}

{
    "m_SGVersion": 0,
    "m_Type": "UnityEditor.ShaderGraph.DynamicValueMaterialSlot",
    "m_ObjectId": "835d9d830dc44f8e885aa19c35e12b35",
    "m_Id": 0,
    "m_DisplayName": "A",
    "m_SlotType": 0,
    "m_Hidden": false,
    "m_ShaderOutputName": "A",
    "m_StageCapability": 3,
    "m_Value": {
        "e00": 0.0,
        "e01": 0.0,
        "e02": 0.0,
        "e03": 0.0,
        "e10": 0.0,
        "e11": 0.0,
        "e12": 0.0,
        "e13": 0.0,
        "e20": 0.0,
        "e21": 0.0,
        "e22": 0.0,
        "e23": 0.0,
        "e30": 0.0,
        "e31": 0.0,
        "e32": 0.0,
        "e33": 0.0
    },
    "m_DefaultValue": {
        "e00": 1.0,
        "e01": 0.0,
        "e02": 0.0,
        "e03": 0.0,
        "e10": 0.0,
        "e11": 1.0,
        "e12": 0.0,
        "e13": 0.0,
        "e20": 0.0,
        "e21": 0.0,
        "e22": 1.0,
        "e23": 0.0,
        "e30": 0.0,
        "e31": 0.0,
        "e32": 0.0,
        "e33": 1.0
    }
}

{
    "m_SGVersion": 0,
    "m_Type": "UnityEditor.ShaderGraph.DynamicValueMaterialSlot",
    "m_ObjectId": "856d356d0f8545819cad4dde303ed3af",
    "m_Id": 1,
    "m_DisplayName": "B",
    "m_SlotType": 0,
    "m_Hidden": false,
    "m_ShaderOutputName": "B",
    "m_StageCapability": 3,
    "m_Value": {
        "e00": 2.0,
        "e01": 2.0,
        "e02": 2.0,
        "e03": 2.0,
        "e10": 2.0,
        "e11": 2.0,
        "e12": 2.0,
        "e13": 2.0,
        "e20": 2.0,
        "e21": 2.0,
        "e22": 2.0,
        "e23": 2.0,
        "e30": 2.0,
        "e31": 2.0,
        "e32": 2.0,
        "e33": 2.0
    },
    "m_DefaultValue": {
        "e00": 1.0,
        "e01": 0.0,
        "e02": 0.0,
        "e03": 0.0,
        "e10": 0.0,
        "e11": 1.0,
        "e12": 0.0,
        "e13": 0.0,
        "e20": 0.0,
        "e21": 0.0,
        "e22": 1.0,
        "e23": 0.0,
        "e30": 0.0,
        "e31": 0.0,
        "e32": 0.0,
        "e33": 1.0
    }
}

{
    "m_SGVersion": 0,
    "m_Type": "UnityEditor.ShaderGraph.BlockNode",
    "m_ObjectId": "8e93ad6f7d49495db3ecdb8bb71d0829",
    "m_Group": {
        "m_Id": ""
    },
    "m_Name": "SurfaceDescription.NormalTS",
    "m_DrawState": {
        "m_Expanded": true,
        "m_Position": {
            "serializedVersion": "2",
            "x": 0.0,
            "y": 0.0,
            "width": 0.0,
            "height": 0.0
        }
    },
    "m_Slots": [
        {
            "m_Id": "b85fa868a99f41aa9d144112336cf715"
        }
    ],
    "synonyms": [],
    "m_Precision": 0,
    "m_PreviewExpanded": true,
    "m_PreviewMode": 0,
    "m_CustomColors": {
        "m_SerializableColors": []
    },
    "m_SerializedDescriptor": "SurfaceDescription.NormalTS"
}

{
    "m_SGVersion": 0,
    "m_Type": "UnityEditor.ShaderGraph.DynamicVectorMaterialSlot",
    "m_ObjectId": "8ee746ed062441709f5583933dc892ae",
    "m_Id": 1,
    "m_DisplayName": "B",
    "m_SlotType": 0,
    "m_Hidden": false,
    "m_ShaderOutputName": "B",
    "m_StageCapability": 3,
    "m_Value": {
        "x": 0.0,
        "y": 0.0,
        "z": 0.0,
        "w": 0.0
    },
    "m_DefaultValue": {
        "x": 0.0,
        "y": 0.0,
        "z": 0.0,
        "w": 0.0
    }
}

{
    "m_SGVersion": 1,
    "m_Type": "UnityEditor.ShaderGraph.Internal.Vector1ShaderProperty",
    "m_ObjectId": "93af429eded5479b9019bd164d431016",
    "m_Guid": {
        "m_GuidSerialized": "1388e30f-8129-4277-adec-2240eb11b8e5"
    },
    "m_Name": "Float",
    "m_DefaultRefNameVersion": 1,
    "m_RefNameGeneratedByDisplayName": "Float",
    "m_DefaultReferenceName": "_Float",
    "m_OverrideReferenceName": "",
    "m_GeneratePropertyBlock": true,
    "m_UseCustomSlotLabel": false,
    "m_CustomSlotLabel": "",
    "m_Precision": 0,
    "overrideHLSLDeclaration": false,
    "hlslDeclarationOverride": 0,
    "m_Hidden": false,
    "m_Value": 0.0,
    "m_FloatType": 0,
    "m_RangeValues": {
        "x": 0.0,
        "y": 1.0
    }
}

{
    "m_SGVersion": 0,
    "m_Type": "UnityEditor.Rendering.Universal.ShaderGraph.UniversalLitSubTarget",
    "m_ObjectId": "93cf118d494b4d3f9ca52969d40b4eac",
    "m_WorkflowMode": 1,
    "m_NormalDropOffSpace": 0,
    "m_ClearCoat": false
}

{
    "m_SGVersion": 0,
    "m_Type": "UnityEditor.ShaderGraph.DynamicVectorMaterialSlot",
    "m_ObjectId": "9507668b134c441ba4715c6fd797d814",
    "m_Id": 0,
    "m_DisplayName": "A",
    "m_SlotType": 0,
    "m_Hidden": false,
    "m_ShaderOutputName": "A",
    "m_StageCapability": 3,
    "m_Value": {
        "x": 0.0,
        "y": 0.0,
        "z": 0.0,
        "w": 0.0
    },
    "m_DefaultValue": {
        "x": 0.0,
        "y": 0.0,
        "z": 0.0,
        "w": 0.0
    }
}

{
    "m_SGVersion": 0,
    "m_Type": "UnityEditor.ShaderGraph.NormalMaterialSlot",
    "m_ObjectId": "95745e2bb4c24aebb8d112a4c0e60a83",
    "m_Id": 0,
    "m_DisplayName": "Normal",
    "m_SlotType": 0,
    "m_Hidden": false,
    "m_ShaderOutputName": "Normal",
    "m_StageCapability": 1,
    "m_Value": {
        "x": 0.0,
        "y": 0.0,
        "z": 0.0
    },
    "m_DefaultValue": {
        "x": 0.0,
        "y": 0.0,
        "z": 0.0
    },
    "m_Labels": [],
    "m_Space": 0
}

{
    "m_SGVersion": 0,
    "m_Type": "UnityEditor.ShaderGraph.DynamicVectorMaterialSlot",
    "m_ObjectId": "988372b1c4db4fabb297b8d98d982fa9",
    "m_Id": 2,
    "m_DisplayName": "Out",
    "m_SlotType": 1,
    "m_Hidden": false,
    "m_ShaderOutputName": "Out",
    "m_StageCapability": 3,
    "m_Value": {
        "x": 0.0,
        "y": 0.0,
        "z": 0.0,
        "w": 0.0
    },
    "m_DefaultValue": {
        "x": 0.0,
        "y": 0.0,
        "z": 0.0,
        "w": 0.0
    }
}

{
    "m_SGVersion": 0,
    "m_Type": "UnityEditor.ShaderGraph.CategoryData",
    "m_ObjectId": "9a98c6d7d51742a79376b9db6953d598",
    "m_Name": "",
    "m_ChildObjectList": [
        {
            "m_Id": "56f7c245e5e7485394197178cd35319b"
        },
        {
            "m_Id": "41d7c5bf58de4ea5a9722ad564eaf679"
        },
        {
            "m_Id": "dd8ff0f0a757488396cf04f644bb1a3c"
        },
        {
            "m_Id": "6d5bb12bea3d4e76a8e5531b50d256d1"
        },
        {
            "m_Id": "93af429eded5479b9019bd164d431016"
        }
    ]
}

{
    "m_SGVersion": 0,
    "m_Type": "UnityEditor.ShaderGraph.BlockNode",
    "m_ObjectId": "9ffcf2bf5ff04004a956cf3737b52e8f",
    "m_Group": {
        "m_Id": ""
    },
    "m_Name": "VertexDescription.Tangent",
    "m_DrawState": {
        "m_Expanded": true,
        "m_Position": {
            "serializedVersion": "2",
            "x": 0.0,
            "y": 0.0,
            "width": 0.0,
            "height": 0.0
        }
    },
    "m_Slots": [
        {
            "m_Id": "737d3a03beb9497d8b606fdcf7d62612"
        }
    ],
    "synonyms": [],
    "m_Precision": 0,
    "m_PreviewExpanded": true,
    "m_PreviewMode": 0,
    "m_CustomColors": {
        "m_SerializableColors": []
    },
    "m_SerializedDescriptor": "VertexDescription.Tangent"
}

{
    "m_SGVersion": 0,
    "m_Type": "UnityEditor.ShaderGraph.Vector1MaterialSlot",
    "m_ObjectId": "a05823926166440a85d71338bd5eca5f",
    "m_Id": 1,
    "m_DisplayName": "Out_Vector1",
    "m_SlotType": 1,
    "m_Hidden": false,
    "m_ShaderOutputName": "OutVector1",
    "m_StageCapability": 2,
    "m_Value": 0.0,
    "m_DefaultValue": 0.0,
    "m_Labels": []
}

{
    "m_SGVersion": 0,
    "m_Type": "UnityEditor.ShaderGraph.Vector4MaterialSlot",
    "m_ObjectId": "a597fb22507842f9bef3d1045292cd4a",
    "m_Id": 0,
    "m_DisplayName": "ShoreColor",
    "m_SlotType": 1,
    "m_Hidden": false,
    "m_ShaderOutputName": "Out",
    "m_StageCapability": 3,
    "m_Value": {
        "x": 0.0,
        "y": 0.0,
        "z": 0.0,
        "w": 0.0
    },
    "m_DefaultValue": {
        "x": 0.0,
        "y": 0.0,
        "z": 0.0,
        "w": 0.0
    },
    "m_Labels": []
}

{
    "m_SGVersion": 0,
    "m_Type": "UnityEditor.ShaderGraph.DynamicVectorMaterialSlot",
    "m_ObjectId": "a9f183e2396d4f2d8f6c8a78b25a4f7f",
    "m_Id": 1,
    "m_DisplayName": "Out",
    "m_SlotType": 1,
    "m_Hidden": false,
    "m_ShaderOutputName": "Out",
    "m_StageCapability": 3,
    "m_Value": {
        "x": 0.0,
        "y": 0.0,
        "z": 0.0,
        "w": 0.0
    },
    "m_DefaultValue": {
        "x": 0.0,
        "y": 0.0,
        "z": 0.0,
        "w": 0.0
    }
}

{
    "m_SGVersion": 0,
    "m_Type": "UnityEditor.ShaderGraph.BlockNode",
    "m_ObjectId": "afd66d67c5ac494284498ba93056f4c2",
    "m_Group": {
        "m_Id": ""
    },
    "m_Name": "SurfaceDescription.Occlusion",
    "m_DrawState": {
        "m_Expanded": true,
        "m_Position": {
            "serializedVersion": "2",
            "x": 0.0,
            "y": 0.0,
            "width": 0.0,
            "height": 0.0
        }
    },
    "m_Slots": [
        {
            "m_Id": "ca4861ea830c4ea1ac2398cf977a457c"
        }
    ],
    "synonyms": [],
    "m_Precision": 0,
    "m_PreviewExpanded": true,
    "m_PreviewMode": 0,
    "m_CustomColors": {
        "m_SerializableColors": []
    },
    "m_SerializedDescriptor": "SurfaceDescription.Occlusion"
}

{
    "m_SGVersion": 0,
    "m_Type": "UnityEditor.ShaderGraph.PropertyNode",
    "m_ObjectId": "b30dd91d80e94ca3a2ecca8ca3a4a8fd",
    "m_Group": {
        "m_Id": ""
    },
    "m_Name": "Property",
    "m_DrawState": {
        "m_Expanded": true,
        "m_Position": {
            "serializedVersion": "2",
            "x": -747.2000122070313,
            "y": -204.8000946044922,
            "width": 139.99993896484376,
            "height": 33.600067138671878
        }
    },
    "m_Slots": [
        {
            "m_Id": "59f3170679f0464fa0e53cc098d15d03"
        }
    ],
    "synonyms": [],
    "m_Precision": 0,
    "m_PreviewExpanded": true,
    "m_PreviewMode": 0,
    "m_CustomColors": {
        "m_SerializableColors": []
    },
    "m_Property": {
        "m_Id": "41d7c5bf58de4ea5a9722ad564eaf679"
    }
}

{
    "m_SGVersion": 0,
    "m_Type": "UnityEditor.ShaderGraph.BlockNode",
    "m_ObjectId": "b693208d574a4e5ea5aa074a4cfa5bea",
    "m_Group": {
        "m_Id": ""
    },
    "m_Name": "SurfaceDescription.Emission",
    "m_DrawState": {
        "m_Expanded": true,
        "m_Position": {
            "serializedVersion": "2",
            "x": 0.0,
            "y": 0.0,
            "width": 0.0,
            "height": 0.0
        }
    },
    "m_Slots": [
        {
            "m_Id": "2b2b90dcc30b46cbb05e2aa91167e99b"
        }
    ],
    "synonyms": [],
    "m_Precision": 0,
    "m_PreviewExpanded": true,
    "m_PreviewMode": 0,
    "m_CustomColors": {
        "m_SerializableColors": []
    },
    "m_SerializedDescriptor": "SurfaceDescription.Emission"
}

{
    "m_SGVersion": 0,
    "m_Type": "UnityEditor.ShaderGraph.BlockNode",
    "m_ObjectId": "b769fad2da02414eaacfd00dbd1a3e43",
    "m_Group": {
        "m_Id": ""
    },
    "m_Name": "SurfaceDescription.BaseColor",
    "m_DrawState": {
        "m_Expanded": true,
        "m_Position": {
            "serializedVersion": "2",
            "x": 0.0,
            "y": 0.0,
            "width": 0.0,
            "height": 0.0
        }
    },
    "m_Slots": [
        {
            "m_Id": "d5895265f43a49da9c3a0ed7560a6ded"
        }
    ],
    "synonyms": [],
    "m_Precision": 0,
    "m_PreviewExpanded": true,
    "m_PreviewMode": 0,
    "m_CustomColors": {
        "m_SerializableColors": []
    },
    "m_SerializedDescriptor": "SurfaceDescription.BaseColor"
}

{
    "m_SGVersion": 0,
    "m_Type": "UnityEditor.ShaderGraph.NormalMaterialSlot",
    "m_ObjectId": "b85fa868a99f41aa9d144112336cf715",
    "m_Id": 0,
    "m_DisplayName": "Normal (Tangent Space)",
    "m_SlotType": 0,
    "m_Hidden": false,
    "m_ShaderOutputName": "NormalTS",
    "m_StageCapability": 2,
    "m_Value": {
        "x": 0.0,
        "y": 0.0,
        "z": 0.0
    },
    "m_DefaultValue": {
        "x": 0.0,
        "y": 0.0,
        "z": 0.0
    },
    "m_Labels": [],
    "m_Space": 3
}

{
    "m_SGVersion": 0,
    "m_Type": "UnityEditor.ShaderGraph.AddNode",
    "m_ObjectId": "becfc027f335411084a4a16c14e14880",
    "m_Group": {
        "m_Id": ""
    },
    "m_Name": "Add",
    "m_DrawState": {
        "m_Expanded": true,
        "m_Position": {
            "serializedVersion": "2",
            "x": -10.400073051452637,
            "y": -108.0001449584961,
            "width": 207.9999237060547,
            "height": 301.60015869140627
        }
    },
    "m_Slots": [
        {
            "m_Id": "9507668b134c441ba4715c6fd797d814"
        },
        {
            "m_Id": "8ee746ed062441709f5583933dc892ae"
        },
        {
            "m_Id": "988372b1c4db4fabb297b8d98d982fa9"
        }
    ],
    "synonyms": [
        "addition",
        "sum",
        "plus"
    ],
    "m_Precision": 0,
    "m_PreviewExpanded": true,
    "m_PreviewMode": 0,
    "m_CustomColors": {
        "m_SerializableColors": []
    }
}

{
    "m_SGVersion": 0,
    "m_Type": "UnityEditor.ShaderGraph.MultiplyNode",
    "m_ObjectId": "c435d0dd517044a7844e4c3d14c5e437",
    "m_Group": {
        "m_Id": ""
    },
    "m_Name": "Multiply",
    "m_DrawState": {
        "m_Expanded": true,
        "m_Position": {
            "serializedVersion": "2",
            "x": -52.00009536743164,
            "y": -453.60009765625,
            "width": 208.00010681152345,
            "height": 301.5999755859375
        }
    },
    "m_Slots": [
        {
            "m_Id": "7cfc315e06bb408c9e272594ae2a3a27"
        },
        {
            "m_Id": "856d356d0f8545819cad4dde303ed3af"
        },
        {
            "m_Id": "d514024efb3a4302bbcaa644a6870b96"
        }
    ],
    "synonyms": [
        "multiplication",
        "times",
        "x"
    ],
    "m_Precision": 0,
    "m_PreviewExpanded": true,
    "m_PreviewMode": 0,
    "m_CustomColors": {
        "m_SerializableColors": []
    }
}

{
    "m_SGVersion": 0,
    "m_Type": "UnityEditor.ShaderGraph.BlockNode",
    "m_ObjectId": "c833a18371e54efca9b3f6caa8b6dfaf",
    "m_Group": {
        "m_Id": ""
    },
    "m_Name": "VertexDescription.Position",
    "m_DrawState": {
        "m_Expanded": true,
        "m_Position": {
            "serializedVersion": "2",
            "x": 0.0,
            "y": 0.0,
            "width": 0.0,
            "height": 0.0
        }
    },
    "m_Slots": [
        {
            "m_Id": "454d3c97e13748129657abe73a7d71d0"
        }
    ],
    "synonyms": [],
    "m_Precision": 0,
    "m_PreviewExpanded": true,
    "m_PreviewMode": 0,
    "m_CustomColors": {
        "m_SerializableColors": []
    },
    "m_SerializedDescriptor": "VertexDescription.Position"
}

{
    "m_SGVersion": 0,
    "m_Type": "UnityEditor.ShaderGraph.BlockNode",
    "m_ObjectId": "c88816395d924c61adc4606160b947f4",
    "m_Group": {
        "m_Id": ""
    },
    "m_Name": "SurfaceDescription.Smoothness",
    "m_DrawState": {
        "m_Expanded": true,
        "m_Position": {
            "serializedVersion": "2",
            "x": 0.0,
            "y": 0.0,
            "width": 0.0,
            "height": 0.0
        }
    },
    "m_Slots": [
        {
            "m_Id": "0edd5b22aea14148a8b8b4f5cbc5d8d2"
        }
    ],
    "synonyms": [],
    "m_Precision": 0,
    "m_PreviewExpanded": true,
    "m_PreviewMode": 0,
    "m_CustomColors": {
        "m_SerializableColors": []
    },
    "m_SerializedDescriptor": "SurfaceDescription.Smoothness"
}

{
    "m_SGVersion": 0,
    "m_Type": "UnityEditor.ShaderGraph.Vector1MaterialSlot",
    "m_ObjectId": "ca4861ea830c4ea1ac2398cf977a457c",
    "m_Id": 0,
    "m_DisplayName": "Ambient Occlusion",
    "m_SlotType": 0,
    "m_Hidden": false,
    "m_ShaderOutputName": "Occlusion",
    "m_StageCapability": 2,
    "m_Value": 1.0,
    "m_DefaultValue": 1.0,
    "m_Labels": []
}

{
    "m_SGVersion": 0,
    "m_Type": "UnityEditor.ShaderGraph.Vector1MaterialSlot",
    "m_ObjectId": "cce611dce70e4b0986fac81c0c8f44bc",
    "m_Id": 0,
    "m_DisplayName": "Alpha",
    "m_SlotType": 0,
    "m_Hidden": false,
    "m_ShaderOutputName": "Alpha",
    "m_StageCapability": 2,
    "m_Value": 1.0,
    "m_DefaultValue": 1.0,
    "m_Labels": []
}

{
    "m_SGVersion": 0,
    "m_Type": "UnityEditor.ShaderGraph.PropertyNode",
    "m_ObjectId": "cd7c5f9a8af748908b756fba960ffcfd",
    "m_Group": {
        "m_Id": ""
    },
    "m_Name": "Property",
    "m_DrawState": {
        "m_Expanded": true,
        "m_Position": {
            "serializedVersion": "2",
            "x": -720.800048828125,
            "y": -271.2000732421875,
            "width": 107.20001220703125,
            "height": 33.5999755859375
        }
    },
    "m_Slots": [
        {
            "m_Id": "5895e4eb738a4c138323c6d327b29ee8"
        }
    ],
    "synonyms": [],
    "m_Precision": 0,
    "m_PreviewExpanded": true,
    "m_PreviewMode": 0,
    "m_CustomColors": {
        "m_SerializableColors": []
    },
    "m_Property": {
        "m_Id": "56f7c245e5e7485394197178cd35319b"
    }
}

{
    "m_SGVersion": 0,
    "m_Type": "UnityEditor.ShaderGraph.DynamicValueMaterialSlot",
    "m_ObjectId": "d514024efb3a4302bbcaa644a6870b96",
    "m_Id": 2,
    "m_DisplayName": "Out",
    "m_SlotType": 1,
    "m_Hidden": false,
    "m_ShaderOutputName": "Out",
    "m_StageCapability": 3,
    "m_Value": {
        "e00": 0.0,
        "e01": 0.0,
        "e02": 0.0,
        "e03": 0.0,
        "e10": 0.0,
        "e11": 0.0,
        "e12": 0.0,
        "e13": 0.0,
        "e20": 0.0,
        "e21": 0.0,
        "e22": 0.0,
        "e23": 0.0,
        "e30": 0.0,
        "e31": 0.0,
        "e32": 0.0,
        "e33": 0.0
    },
    "m_DefaultValue": {
        "e00": 1.0,
        "e01": 0.0,
        "e02": 0.0,
        "e03": 0.0,
        "e10": 0.0,
        "e11": 1.0,
        "e12": 0.0,
        "e13": 0.0,
        "e20": 0.0,
        "e21": 0.0,
        "e22": 1.0,
        "e23": 0.0,
        "e30": 0.0,
        "e31": 0.0,
        "e32": 0.0,
        "e33": 1.0
    }
}

{
    "m_SGVersion": 0,
    "m_Type": "UnityEditor.ShaderGraph.ColorRGBMaterialSlot",
    "m_ObjectId": "d5895265f43a49da9c3a0ed7560a6ded",
    "m_Id": 0,
    "m_DisplayName": "Base Color",
    "m_SlotType": 0,
    "m_Hidden": false,
    "m_ShaderOutputName": "BaseColor",
    "m_StageCapability": 2,
    "m_Value": {
        "x": 0.5,
        "y": 0.5,
        "z": 0.5
    },
    "m_DefaultValue": {
        "x": 0.0,
        "y": 0.0,
        "z": 0.0
    },
    "m_Labels": [],
    "m_ColorMode": 0,
    "m_DefaultColor": {
        "r": 0.5,
        "g": 0.5,
        "b": 0.5,
        "a": 1.0
    }
}

{
    "m_SGVersion": 0,
    "m_Type": "UnityEditor.ShaderGraph.PropertyNode",
    "m_ObjectId": "d9e286a4cd474ccd9eb3dc794f6e492d",
    "m_Group": {
        "m_Id": ""
    },
    "m_Name": "Property",
    "m_DrawState": {
        "m_Expanded": true,
        "m_Position": {
            "serializedVersion": "2",
            "x": -476.800048828125,
            "y": -480.8000793457031,
            "width": 135.99990844726563,
            "height": 33.600067138671878
        }
    },
    "m_Slots": [
        {
            "m_Id": "a597fb22507842f9bef3d1045292cd4a"
        }
    ],
    "synonyms": [],
    "m_Precision": 0,
    "m_PreviewExpanded": true,
    "m_PreviewMode": 0,
    "m_CustomColors": {
        "m_SerializableColors": []
    },
    "m_Property": {
        "m_Id": "6d5bb12bea3d4e76a8e5531b50d256d1"
    }
}

{
    "m_SGVersion": 0,
    "m_Type": "UnityEditor.ShaderGraph.PropertyNode",
    "m_ObjectId": "da69a6d37406442da783fa482f90f0e2",
    "m_Group": {
        "m_Id": ""
    },
    "m_Name": "Property",
    "m_DrawState": {
        "m_Expanded": true,
        "m_Position": {
            "serializedVersion": "2",
            "x": -277.6000061035156,
            "y": -285.6000061035156,
            "width": 130.39999389648438,
            "height": 33.60002136230469
        }
    },
    "m_Slots": [
        {
            "m_Id": "2dea8a1351374eceb5c86c040b0c6062"
        }
    ],
    "synonyms": [],
    "m_Precision": 0,
    "m_PreviewExpanded": true,
    "m_PreviewMode": 0,
    "m_CustomColors": {
        "m_SerializableColors": []
    },
    "m_Property": {
        "m_Id": "dd8ff0f0a757488396cf04f644bb1a3c"
    }
}

{
    "m_SGVersion": 0,
    "m_Type": "UnityEditor.ShaderGraph.Vector1MaterialSlot",
    "m_ObjectId": "dbcb3a8b03bb41eb8955989ba0922948",
    "m_Id": 0,
    "m_DisplayName": "Metallic",
    "m_SlotType": 0,
    "m_Hidden": false,
    "m_ShaderOutputName": "Metallic",
    "m_StageCapability": 2,
    "m_Value": 0.0,
    "m_DefaultValue": 0.0,
    "m_Labels": []
}

{
    "m_SGVersion": 3,
    "m_Type": "UnityEditor.ShaderGraph.Internal.ColorShaderProperty",
    "m_ObjectId": "dd8ff0f0a757488396cf04f644bb1a3c",
    "m_Guid": {
        "m_GuidSerialized": "341ffeab-3302-4f57-9f87-b3908141b588"
    },
    "m_Name": "MainColor",
    "m_DefaultRefNameVersion": 1,
    "m_RefNameGeneratedByDisplayName": "MainColor",
    "m_DefaultReferenceName": "_MainColor",
    "m_OverrideReferenceName": "",
    "m_GeneratePropertyBlock": true,
    "m_UseCustomSlotLabel": false,
    "m_CustomSlotLabel": "",
    "m_Precision": 0,
    "overrideHLSLDeclaration": false,
    "hlslDeclarationOverride": 0,
    "m_Hidden": false,
    "m_Value": {
        "r": 0.0,
        "g": 0.0,
        "b": 0.0,
        "a": 0.0
    },
    "isMainColor": false,
    "m_ColorMode": 0
}

{
    "m_SGVersion": 0,
    "m_Type": "UnityEditor.ShaderGraph.OneMinusNode",
    "m_ObjectId": "e772ba6fc34d42b5b7e39e2b7095e147",
    "m_Group": {
        "m_Id": ""
    },
    "m_Name": "One Minus",
    "m_DrawState": {
        "m_Expanded": true,
        "m_Position": {
            "serializedVersion": "2",
            "x": -308.8000793457031,
            "y": -147.20004272460938,
            "width": 207.99993896484376,
            "height": 277.5999755859375
        }
    },
    "m_Slots": [
        {
            "m_Id": "e845f5600e4246ceaff767f048b46f9c"
        },
        {
            "m_Id": "a9f183e2396d4f2d8f6c8a78b25a4f7f"
        }
    ],
    "synonyms": [
        "complement",
        "invert",
        "opposite"
    ],
    "m_Precision": 0,
    "m_PreviewExpanded": true,
    "m_PreviewMode": 0,
    "m_CustomColors": {
        "m_SerializableColors": []
    }
}

{
    "m_SGVersion": 0,
    "m_Type": "UnityEditor.ShaderGraph.DynamicVectorMaterialSlot",
    "m_ObjectId": "e845f5600e4246ceaff767f048b46f9c",
    "m_Id": 0,
    "m_DisplayName": "In",
    "m_SlotType": 0,
    "m_Hidden": false,
    "m_ShaderOutputName": "In",
    "m_StageCapability": 3,
    "m_Value": {
        "x": 1.0,
        "y": 1.0,
        "z": 1.0,
        "w": 1.0
    },
    "m_DefaultValue": {
        "x": 0.0,
        "y": 0.0,
        "z": 0.0,
        "w": 0.0
    }
}

{
    "m_SGVersion": 0,
    "m_Type": "UnityEditor.ShaderGraph.MultiplyNode",
    "m_ObjectId": "f5580eea56d549e7a062a2cf3a2ac070",
    "m_Group": {
        "m_Id": ""
    },
    "m_Name": "Multiply",
    "m_DrawState": {
        "m_Expanded": true,
        "m_Position": {
            "serializedVersion": "2",
            "x": -309.60009765625,
            "y": -459.20001220703127,
            "width": 208.00010681152345,
            "height": 301.5999755859375
        }
    },
    "m_Slots": [
        {
            "m_Id": "835d9d830dc44f8e885aa19c35e12b35"
        },
        {
            "m_Id": "256ff904cf6d4a5ba3e2ce14c6c58a9f"
        },
        {
            "m_Id": "432d791182e941549be2dc8f02a630a1"
        }
    ],
    "synonyms": [
        "multiplication",
        "times",
        "x"
    ],
    "m_Precision": 0,
    "m_PreviewExpanded": true,
    "m_PreviewMode": 0,
    "m_CustomColors": {
        "m_SerializableColors": []
    }
}

